{
  "cwd": "/home/ensai/2A/Technologie_Mobile/quizzapplication",
  "type": [
    "pwa",
    "capacitor"
  ],
  "name": "EnsaQuizz",
  "framework": "react",
  "template": "tabs",
  "bundler": "vite",
  "cssPreProcessor": false,
  "theming": {
    "customColor": false,
    "color": "#007aff",
    "darkTheme": false,
    "iconFonts": true,
    "fillBars": false
  },
  "customBuild": false,
  "pkg": "io.framework7.myapp",
  "capacitor": {
    "platforms": [
      "ios",
      "android"
    ]
  }
}